{
    "force_content": "???",
    "author": "?",
    "time": "?.?.?",
    "new_author": "编辑：乙烯",
    "new_time": "更新：2024.4.11",
    "readed_button_text": "已阅！asdasndjasbldkabsdlasb",
    "author_icon_link": "https://s21.ax1x.com/2024/04/10/pFXpLJs.png",
    "version": 5,
    "force_time": 99999999,
    "content": "因发现有黑心商家进行售卖软件，本软件今日起永久停用！\n 详情可看如下链接：https://nga.178.com/read.php?tid=39842464&_ff=-447601"
}